…
# Recipe
pca_rec <- 
  recipe(diabetes ~ ., data = dat_train) %>% 
  step_normalize(all_numeric_predictors()) %>% 
  step_pca(all_numeric_predictors())

# Prep
pca_prep <- prep(pca_rec)

So, we can extract the PCA data using tidy(). type = "coef" indicates that we want the loadings values. So, the values in the data are the loadings.

pca_tidied <- tidy(pca_prep, 2, type = "coef")
pca_tidied

## # A tibble: 64 x 4
##    terms     value component id       
##    <chr>     <dbl> <chr>     <chr>    
##  1 pregnant  0.107 PC1       pca_JtuLZ
##  2 glucose   0.357 PC1       pca_JtuLZ
##  3 pressure  0.330 PC1       pca_JtuLZ
##  4 triceps   0.460 PC1       pca_JtuLZ
##  5 insulin   0.466 PC1       pca_JtuLZ
##  6 mass      0.447 PC1       pca_JtuLZ
##  7 pedigree  0.315 PC1       pca_JtuLZ
##  8 age       0.158 PC1       pca_JtuLZ
##  9 pregnant -0.597 PC2       pca_JtuLZ
## 10 glucose  -0.192 PC2       pca_JtuLZ
## # ... with 54 more rows
…
