…
Finally, our data is ready.

irt_rob

## # A tibble: 24 x 9
##    Study  Random.sequence.~ Allocation.conce~ Selective.repor~ Blinding.of.part~
##    <chr>  <chr>             <chr>             <chr>            <chr>            
##  1 Ahmed~ Unclear           Unclear           Unclear          High             
##  2 Badro~ Unclear           High              High             High             
##  3 Baros~ Unclear           Unclear           High             High             
##  4 Baros~ Unclear           Unclear           High             High             
##  5 Carls~ Low               High              High             Low              
##  6 Corre~ Low               Low               Low              High             
##  7 Farah~ Low               Low               Low              High             
##  8 Forja~ Unclear           Unclear           Unclear          High             
##  9 Goess~ Low               Unclear           High             High             
## 10 Gordo~ Unclear           Unclear           High             High             
## # ... with 14 more rows, and 4 more variables:
## #   Blinding.of.outcome.assessment <chr>, Incomplete.outcome.data <chr>,
## #   Other.sources.of.bias. <chr>, Overall <chr>
