…
Grid search

So, in grid search, we provide the combination of parameters and the algorithm will go through each combination of parameters. There are two types of grid search:

Regular grid search

– The algorithm will go through each combinations of parameters.

grid_regular(mtry(c(1, 13)), 
             trees(), 
             min_n(),
             levels = 3) # how many from each parameter

## # A tibble: 27 x 3
##     mtry trees min_n
##    <int> <int> <int>
##  1     1     1     2
##  2     7     1     2
##  3    13     1     2
##  4     1  1000     2
##  5     7  1000     2
##  6    13  1000     2
##  7     1  2000     2
##  8     7  2000     2
##  9    13  2000     2
## 10     1     1    21
## # ... with 17 more rows

Random grid search

– The algorithm will randomly select a number of combination of parameters instead of go through each of them.

grid_random(mtry(c(1, 13)),
            trees(), 
            min_n(), 
            size = 100) # size of parameters combination

## # A tibble: 100 x 3
##     mtry trees min_n
##    <int> <int> <int>
##  1     6  1736    35
##  2     4  1773    22
##  3    12  1948    20
##  4    10  1234     3
##  5     7    24    29
##  6     2  1340    34
##  7     8   569    40
##  8     9   646     4
##  9     9   675    10
## 10    11  1993    37
## # ... with 90 more rows
…
