Hyperparameter tuning in tidymodels | Tengku Hanis
…
Grid search

So, in grid search, we provide the combination of parameters and the algorithm will go through each combination of parameters. There are two types of grid search:

Regular grid search

– The algorithm will go through each combinations of parameters.

grid_regular(mtry(c(1, 13)), 
             trees(), 
             min_n(),
             levels = 3) # how many from each parameter

## # A tibble: 27 x 3
##     mtry trees min_n
##    <int> <int> <int>
##  1     1     1     2
##  2     7     1     2
##  3    13     1     2
##  4     1  1000     2
##  5     7  1000     2
##  6    13  1000     2
##  7     1  2000     2
##  8     7  2000     2
##  9    13  2000     2
## 10     1     1    21
## # ... with 17 more rows

Random grid search

– The algorithm will randomly select a number of combination of parameters instead of go through each of them.

grid_random(mtry(c(1, 13)),
            trees(), 
            min_n(), 
            size = 100) # size of parameters combination

## # A tibble: 100 x 3
##     mtry trees min_n
##    <int> <int> <int>
##  1     5  1216    40
##  2     8  1374    13
##  3     9   859    39
##  4     6   282    12
##  5     2  1210     9
##  6     8  1828    39
##  7    11   550    14
##  8    13  1157    32
##  9     5   282     6
## 10    10  1018    28
## # ... with 90 more rows
…
